{
    // (optional) paths to other configs like this
    "configLocations": ["C:\\Users\\Me\\Documents", "C:\\Users\\You\\Documents"],

    // list of files or directories to sync
    "inSync": [
        {
            // (optional) If true,sync only from first location to others
            "oneDirection": false, //<- default

            // (optional) delays syncing
            "delayMs": 5000, //<- default

            //maybe in future:
            //"once": false,
            //"move": false,
            //"confirm": false,
            //"comparer": "date",

            // list of locations to synchronize
            "locations": [
                {
                    // drive is only option
                    "mediaType": "drive",

                    //(optional) could be found in logs...
                    "mediaId": "1a232b123b",

                    // path, could be without root if mediaId is present, directory paths should end with \ or / .directories are synced with all subdirectories.
                    "path": "/test/file.txt"
                },
                {
                    "mediaType": "drive",
                    "path": "C:\\test2\\file.txt"
                }
            ]
        }
    ]
}
